"LightmappedGeneric"
{
	"$baseTexture" "nature/cliff03b"
	"$surfaceprop" "concrete"
	"%keywords" "ep2"
	"$bumpmap" "nature\Cliff02a-ssbump"
	"$ssbump" "1"
	">=DX90"
	{
	"$detail" "detail\rock_detail_01"
	"$detailscale" "8"
	"$detailblendfactor" 1
	"$detailblendmode" 0
	}
}

