"UnlitGeneric"
{
	"$basetexture" "dev/water_moving_beneath"
	"$bumpmap" "dev/water_normal"
//	"$additive" "1"
	"$translucent" "1"
	"$surfaceprop" "water"
	"%keywords" "wasteland"
	"%compilewater" 1
	"$abovewater" 0
	"ldr?$gammaColorRead" "1"
	"ldr?$linearWrite" "1"
}
