"VertexLitGeneric"
{
	"$basetexture" "Models/props_c17/Oil_Drum001h"
	"$surfaceprop" "metal"
	"$bumpmap" "Models/props_c17/Oil_Drum001a_normal"

	"VertexLitGeneric_DX9"
	{
	"$detail" "detail\noise_detail_01"
	"$detailscale" "5.48"
	"$detailblendfactor" .8
	"$detailblendmode" 0
	}
}
