"UnLitGeneric"
{

	"$basetexture" "Models/props_combine/cit_lightning001/cit_lightning001"
	"%keywords" "combine"
	"$nofog" "1"
	"$model" "1"
	"$translucent" "1"
//	"$alphatest" "1"
	"$additive" "1"
	"ldr?$gammaColorRead" "1"
	"ldr?$linearWrite" "1"

	"Proxies"
	{



		"AnimatedTexture"
		{
			"animatedtexturevar" "$basetexture"
			"animatedtextureframenumvar" "$frame"
			"animatedtextureframerate" 12 
		}

	}

}
