"LightmappedGeneric"
{
	"$basetexture" "Plaster/plasterceiling002b"
	"$bumpmap" "Plaster/plasterceiling002b_normal"
	"$surfaceprop"  "plaster"
	"LightmappedGeneric_DX9"
	{
		"$detail" "detail\plaster_detail_01"
		"$detailscale" "6.783"
		"$detailblendfactor" .8
		"$detailblendmode" "0"
	}
	"%keywords" "c17skyscraper"
}
