// envmaptint_fix
"LightmappedGeneric"
{
	"$basetexture" "Plaster/plasterwallpaper004a"
	"$surfaceprop" "plaster"
	"$bumpmap" "plaster/plasterwallpaper001a_normal"
	"%keywords" "c17downtown"
	"$envmap" "env_cubemap"
	"$normalmapalphaenvmapmask" 1
	"$envmapcontrast" 1
	"$envmapsaturation" 1
	"$envmaptint" "[ .12 .12 .12 ]"
	"LightmappedGeneric_DX9"
	{
		"$detail" "detail\plaster_detail_01"
		"$detailscale" "6.783"
		"$detailblendfactor" .8
		"$detailblendmode" "0"
	}
}
