"LightmappedGeneric"
{
	"$basetexture" "Plaster/Wallpaper003b"
	"$surfaceprop" "plaster"
	"%keywords" "c17downtown"
	"LightmappedGeneric_DX9"
	{
		"$detail" "detail\plaster_detail_01"
		"$detailscale" "7.283"
		"$detailblendfactor" .8
		"$detailblendmode" "0"
	}
}
