// envmaptint_fix
"LightmappedGeneric"
{
	"$basetexture" "concrete\concretefloor033o"
	"$surfaceprop" "concrete"
	"%keywords" "c17downtown"
	"$envmap" "env_cubemap"
	"$bumpmap" "concrete\concretefloor033o_normal"
	"$normalmapalphaenvmapmask" 1
	"$envmapsaturation" 1
	"$envmapcontrast" 1
	"$envmaptint" "[ .56 .56 .56 ]"
	"hdr?$envmaptint" "[.28 .28 .28]"

	"LightmappedGeneric_DX9"
	{
	"$detail" "detail\noise_detail_01"
	"$detailscale" "7.345"
	"$detailblendfactor" .6
	"$detailblendmode" 0
	}
}