// envmaptint_fix
"LightmappedGeneric"
{
	"$basetexture" "concrete\concretefloor038b"
	"$surfaceprop" "concrete"
	">=DX90"
	{
	"$detail" "detail\noise_detail_01"
	"$detailscale" "7.792"
	"$detailblendfactor" .7
	"$detailblendmode" 0
	}
	"%keywords" "c17downtown, ep2"
	"$envmap" "env_cubemap"
	"$bumpmap" "concrete\concretefloor038b_normal"
	"$normalmapalphaenvmapmask" 1
	"$envmapsaturation" 1
	"$envmapcontrast" 1
	"$envmaptint" "[ .56 .56 .56 ]"
	"hdr?$envmaptint" "[.16 .16 .16]"
}
