"LightmappedGeneric"
{
	"$basetexture" "Concrete/concretewall_mine_002a"
	"$surfaceprop" "concrete"

	">=DX90"
	{
	"$detail" "detail\noise_detail_01"
	"$detailscale" "7.792"
	"$detailblendfactor" .9
	"$detailblendmode" 0
	}
	"%keywords" "outland, ep2"
}
