"vertexlitgeneric"
{
 "$model" "1"
 "$baseTexture" "Models/headcrab_classic/headcrabsheet"
 "$bumpmap" "Models/headcrab_classic/headcrabsheet_normal"
 "$phong"     "1"
 "$phongexponent"   "35"
 "$phongboost"   "10"
 "$phongfresnelranges"   "[.5 .8 1]"

//disabled for now, sunlight areas wreaking havoc

	//rimlight parameters
	//"$rimlight" "1"
	//"$rimlightexponent" "8"
	//"$rimlightboost" "2"

	"<DX90_20b"
	{
		"$normalmapalphaenvmapmask" 1
		"$envmap" "env_cubemap"
	}

	"<DX90"
	{
		"dummy" 0
	}
}