
"VertexLitGeneric"
{
	// Original shader: VertexLitTexture
	"$basetexture" "Models/vehicles/vehicle_van/vanthrown001a_01"
	"$surfaceprop" "solidmetal"
	"$basealphaenvmapmask" 1
	"$envmap" "env_cubemap"
	"$envmaptint" "[.15 .15 .15]"


}
