"VertexLitGeneric"
{
	"$basetexture" "models/barnacle/tongue"
	"$nodecal" "1"
	"$rimlight" "1"
	"$rimlightexponent" "75"
	"$phong" "1"
	"$phongboost" "4"
	"$phongexponent" "70"
	//"$phongexponenttexture" "models/barnacle/tongue_phong"
	//"$phongalbedotint" "1"										
	"$phongfresnelranges"	"[.3 .6 1]"
	
	"<DX90_20b"
	{
		"$envmap" "env_cubemap"
		"$envmaptint" "[.5 .5 .5]"
	}
	
	">=DX90_20b"
	{
		"$bumpmap" "models/barnacle/tongue_normal"
	}
}
