"LightmappedGeneric"
{
	"$basetexture" "Metal/metalwall066f"
	"$surfaceprop"  "metal"
	"%keywords" "c17industrial,wasteland"

	"LightmappedGeneric_DX9"
	{
		"$detail" "detail\metal_detail_01"
		"$detailscale" "4.283"
		"$detailblendfactor" .8
		"$detailblendmode" "0"
		"$bumpmap" "Metal/metalwall066f_normal"
	}
}
