"LightmappedGeneric"
{
	// Original shader: BaseTimesLightmapAlphaBlend
	"$alphatest" 1
	"$allowalphatocoverage" 1
	"$basetexture" "Metal/metalarch004b"
	"$surfaceprop" "metal"
	"%keywords" "c17trainstation"
	"%compilepassbullets" 1
}
