// envmaptint_fix
"LightmappedGeneric"
{
	"$basetexture" "Metal/metalwall091a"
	"$surfaceprop"  "metal"
	"LightmappedGeneric_DX9"
	{
		"$detail" "detail\metal_detail_01"
		"$detailscale" "4.283"
		"$detailblendfactor" .8
		"$detailblendmode" "0"
	}

	"%keywords" "combine"
	"$bumpmap" "Metal/metalwall091a_normal"
	//"$nodiffusebumplighting" 1
	"$envmaptint" "[ .56 .56 .75 ]"
	"hdr?$envmaptint" "[.03 .03 .03]"
	"$envmap" "env_cubemap"
	"$normalmapalphaenvmapmask" 1
	"$envmapcontrast" 1
	"$envmapsaturation" 1
	"$parallaxmap" "Metal/metalwall091a_height"
	"$parallaxmapscale" ".0125"
}