// envmaptint_fix
"LightmappedGeneric"
{
	"$basetexture" "Metal/metalwall070e"
	"$surfaceprop"  "metal"
	"LightmappedGeneric_DX9"
	{
		"$detail" "detail\metal_detail_01"
		"$detailscale" "4.283"
		"$detailblendfactor" .8
		"$detailblendmode" "0"
	}

	"%keywords" "c17industrial,wasteland"
	"$bumpmap" "Metal/metalwall070e_normal"
	"$envmap" "env_cubemap"
	"$normalmapalphaenvmapmask" 1
	"$envmapcontrast" 1
	"$envmapsaturation" 1
	"$envmaptint" "[ .56 .56 .56 ]"
	"$FRESNELREFLECTION" .25
}
