// envmaptint_fix
"LightmappedGeneric"
{
	"$basetexture" "Wood/woodfloor007a"
	"$bumpmap" "Wood/woodfloor007a_normal"
	"$surfaceprop" "wood"
	"$envmap" "env_cubemap"
	"$normalmapalphaenvmapmask" 1
	"$envmapcontrast" 1
	"$envmapsaturation" .7
	"$envmaptint" "[ .72 .72 .72 ]"
	"hdr?$envmaptint" "[.28 .28 .28]"
//	"$fresnelreflection" ".3"
}
