"UnlitGeneric"
{
	"$baseTexture" "vgui/hud/autoaim"
	"$translucent" 1
	"$alpha" 1
	"$vertexalpha" "1"
	"$ignorez"     "1"
	"$no_fullbright" "1"	
	"$vertextcolor" "1"
	"$gammaColorRead" "1"
	"$linearWrite" "1"
}
