"UnlitGeneric"
{
	// Original shader: BaseTextureAlphaBlend
	"$alpha" 1
	"$translucent" 1
	"$basetexture" "models/props_foliage/tree_deciduous_cards_01"
	"$model" 1
	"$nocull" 1
	"$nodecal" 1
	"ldr?$gammaColorRead" "1"
	"ldr?$linearWrite" "1"
}

