
"VertexLitGeneric"
{
	// Original shader: VertexLitTexture
	"$basetexture" "Models/props_vehicles/car004b_01"
	"$surfaceprop" "solidmetal"
	"$envmap" "env_cubemap"
	"$basealphaenvmapmask" 1
	"hdr?$envmaptint" "[.5 .5 .5]"
}
