"VertexLitGeneric"
{
	"$baseTexture" "models/Zombie_Fast/fast_zombie_sheet"
	"$alphatest" 1
	"$bumpmap" "models/zombie_fast/fast_zombie_sheet_normal"
	"$surfaceprop" "flesh"
	"$model" "1"
	"$phong" "1"
	"$phongboost" "5"
	"$phongexponent" 25
	//"$phongexponenttexture" "Models/zombie_fast/fast_zombie_phong"
	//"$phongalbedotint" "1"										
	"$phongfresnelranges"	"[.2 .6 1]"
	
	"<DX90_20b"
	{
		"$envmap" "env_cubemap"
		"$normalmapalphaenvmapmask" 1
		"$bumpmap" "Models/zombie_fast/fast_zombie_sheet_normal_old"
		"$envmapcontrast" 1
	}
}
