"UnlitGeneric"
{
	// Original shader: AddTexture
	"$basetexture" "effects/tesla_glow"
	"$additive" 1
	"$vertexcolor" 1
	"$vertexalpha" 1
	"ignoreZ" 1
	"ldr?$gammaColorRead" "1"
	"ldr?$linearWrite" "1"
}
