"LightmappedGeneric"
{
	"$basetexture" "Stone/stonewall050k"
	"$surfaceprop" "concrete"
	"%keywords" "c17downtown"
	"$bumpmap" "stone/stonewall050k_normal"

	"LightmappedGeneric_DX9"
	{
	"$detail" "detail\noise_detail_01"
	"$detailscale" "7.345"
	"$detailblendfactor" .8
	"$detailblendmode" 0
	}
}
